{
  "get_pure": {
    "status": "success",
    "status_code": "200",
    "data": [
      {
        "id": 1,
        "name": "Widget #1",
        "uri": "/products/1"
      },
      {
        "id": 2,
        "name": "Widget #2",
        "uri": "/products/2"
      }
    ]
  },

  "get_pagination": {
    "metadata": {
      "page": 5,
      "page_limit": 20,
      "page_count": 20,
      "total_count": 521,
      "links": [
        { "self": "/products?page=5&page_limit=20" },
        { "first": "/products?page=0&page_limit=20" },
        { "previous": "/products?page=4&page_limit=20" },
        { "next": "/products?page=6&page_limit=20" },
        { "last": "/products?page=26&page_limit=20" }
      ]
    },
    "data": [
      {
        "id": 1,
        "name": "Widget #1",
        "uri": "/products/1"
      },
      {
        "id": 2,
        "name": "Widget #2",
        "uri": "/products/2"
      },
      {
        "id": 3,
        "name": "Widget #3",
        "uri": "/products/3"
      }
    ]
  },

  "post": {
    "status": "success",
    "status_code": "201",
    "data": {
      "message": "Product created successfully",
      "product": {
        "id": 1,
        "name": "Widget #1",
        "uri": "/products/1"
      }
    }
  },

  "put": {
    "status": "success",
    "status_code": "201",
    "data": {
      "message": "Product updated successfully",
      "product": {
        "id": 1,
        "name": "Widget #1",
        "uri": "/products/1"
      }
    }
  },

  "delete": {
    "status": "success",
    "status_code": "200",
    "data": {
      "message": "Product deleted successfully",
      "product": {
        "id": 1,
        "name": "Widget #1",
        "uri": "/products/1"
      }
    }
  },

  "error": {
    "status": "error",
    "status_code": "400",
    "data": {
      "message": "Product not found"
    }
  }
}
